Final Project: FIFA dataset tutorial
…
# join the two dataframes on Nationality, so the reduced_df now includes
# each players' national average (of top 11)
reduced_df <-
reduced_df %>%
  left_join(nation_avg_df, by="Nationality")
reduced_df

## # A tibble: 18,207 x 8
##    Name          Age Nationality Overall Club         Height Club_avg Nation_avg
##    <chr>       <dbl> <fct>         <dbl> <chr>         <dbl>    <dbl>      <dbl>
##  1 L. Messi       31 Argentina        94 FC Barcelona     67     78.0       86.2
##  2 Cristiano ~    33 Portugal         94 Juventus         74     82.3       84.7
##  3 Neymar Jr      26 Brazil           92 Paris Saint~     69     77.4       87.2
##  4 De Gea         27 Spain            91 Manchester ~     76     77.2       87.8
##  5 K. De Bruy~    27 Belgium          91 Manchester ~     71     76.7       86.8
##  6 E. Hazard      27 Belgium          91 Chelsea          68     76.8       86.8
##  7 L. Modric      32 Croatia          91 Real Madrid      68     78.2       83.6
##  8 L. Surez      31 Uruguay          91 FC Barcelona     72     78.0       83.5
##  9 Sergio Ram~    32 Spain            91 Real Madrid      72     78.2       87.8
## 10 J. Oblak       25 Slovenia         90 Atltico Ma~     74     75.1       79.6
## # ... with 18,197 more rows
…
